{
  "$id": "project.schema.json",
  "type": "object",
  "properties": {
    "base": { "type": "string" },
    "maxWait": { "type": "string" },
    "upstreams": {
      "type": "object",
      "additionalProperties": {
        "type": "object",
        "properties": {
          "command": { "type": "string" },
          "cwd": { "type": "string" },
          "url": { "type": "string" },
          "ttl": { "type": "string" }
        },
        "required": ["url"],
        "additionalProperties": false
      }
    }
  },
  "required": ["maxWait", "upstreams"],
  "additionalProperties": false
}
